{
	"id":"acf_options",
	"title":"Options",
	"fields": [
		{
			"key":"field_56616040d10c0",
			"label":"Logo",
			"name":"logo",
			"type":"image",
			"default_value":"",
			"placeholder":"",
			"prepend":"",
			"append":"",
			"formatting":"",
			"maxlength":""
		},
		{
			"key":"field_56616040d10c1",
			"label":"Contact Number",
			"name":"contact_number",
			"type":"text",
			"default_value":"",
			"placeholder":"",
			"prepend":"",
			"append":"",
			"formatting":"html",
			"maxlength":""
		},
		{
			"key":"field_56616054d10c2",
			"label":"Email Address",
			"name":"email_address",
			"type":"text",
			"default_value":"",
			"placeholder":"",
			"prepend":"",
			"append":"",
			"formatting":"html",
			"maxlength":""
		},
		{  
		   "key":"field_56b20b4fd881c",
		   "label":"Social Links",
		   "name":"social_links",
		   "type":"repeater",
		   "sub_fields":[  
		      {  
		         "key":"field_56b20b62d881d",
		         "label":"Icon",
		         "name":"icon",
		         "type":"select",
		         "instructions":"For use with Font Awesome",
		         "d":1,
		         "column_width":"",
		         "choices":{  
		            "facebook":"Facebook",
		            "facebook-official":"Facebook (Official)",
		            "facebook-square":"Facebook (Square)",
		            "pinterest":"Pinterest",
		            "pinterest-p":"Pinterest (P Only)",
		            "pinterest-square":"Pinterest (Square)",
		            "snapchat":"Snapchat",
		            "snapchat-ghost":"Snapchat (Ghost)",
		            "snapchat-square":"Snapchat (Square)",
		            "twitter":"Twitter",
		            "twitter-square":"Twitter (Square)",
		            "linkedin":"Linkedin",
		            "linkedin-square":"Linkedin (Square)",
		            "instagram":"Instagram",
		            "google-plus":"Google Plus",
		            "google-plus-square":"Google Plus (Square)",
		            "youtube":"Youtube",
		            "youtube-square":"Youtube (Square)",
		            "vimeo":"Vimeo",
		            "vimeo-square":"Vimeo (Square)"
		         },
		         "default_value":"",
		         "allow_null":0,
		         "multiple":0
		      },
		      {  
		         "key":"field_56b20c75d881e",
		         "label":"Link",
		         "name":"link",
		         "type":"text",
		         "d":1,
		         "column_width":"",
		         "default_value":"",
		         "placeholder":"",
		         "prepend":"",
		         "append":"",
		         "formatting":"html",
		         "maxlength":""
		      }
		   ],
		   "row_min":"",
		   "row_limit":"",
		   "layout":"table",
		   "button_label":"Add Row"
		},
		{
			"key":"field_5661606ed10c3",
			"label":"Address 1",
			"name":"",
			"type":"tab"
		},
		{
			"key":"field_56616090d10c4",
			"label":"Line 1",
			"name":"line_1",
			"type":"text",
			"default_value":"",
			"placeholder":"",
			"prepend":"",
			"append":"",
			"formatting":"html",
			"maxlength":""
		},
		{
			"key":"field_5661609dd10c5",
			"label":"Line 2",
			"name":"line_2",
			"type":"text",
			"default_value":"",
			"placeholder":"",
			"prepend":"",
			"append":"",
			"formatting":"html",
			"maxlength":""
		},
		{
			"key":"field_566160a9d10c6",
			"label":"Line 3",
			"name":"line_3",
			"type":"text",
			"default_value":"",
			"placeholder":"",
			"prepend":"",
			"append":"",
			"formatting":"html",
			"maxlength":""
		},
		{
			"key":"field_566160bfd10c7",
			"label":"Line 4",
			"name":"line_4",
			"type":"text",
			"default_value":"",
			"placeholder":"",
			"prepend":"",
			"append":"",
			"formatting":"html",
			"maxlength":""
		},
		{
			"key":"field_56616111d10c8",
			"label":"Line 5",
			"name":"line_5",
			"type":"text",
			"default_value":"",
			"placeholder":"",
			"prepend":"",
			"append":"",
			"formatting":"html",
			"maxlength":""
		},
		{
			"key":"field_5661611bd10c9",
			"label":"Address 2",
			"name":"",
			"type":"tab"
		},
		{
			"key":"field_56616128d10ca",
			"label":"Line 1",
			"name":"line_1_2",
			"type":"text",
			"default_value":"",
			"placeholder":"",
			"prepend":"",
			"append":"",
			"formatting":"html",
			"maxlength":""
		},
		{
			"key":"field_56616135d10cb",
			"label":"Line 2",
			"name":"line_2_2",
			"type":"text",
			"default_value":"",
			"placeholder":"",
			"prepend":"",
			"append":"",
			"formatting":"html",
			"maxlength":""
		},
		{
			"key":"field_5661613cd10cc",
			"label":"Line 3",
			"name":"line_3_2",
			"type":"text",
			"default_value":"",
			"placeholder":"",
			"prepend":"",
			"append":"",
			"formatting":"html",
			"maxlength":""
		},
		{
			"key":"field_56616143d10cd",
			"label":"Line 4",
			"name":"line_4_2",
			"type":"text",
			"default_value":"",
			"placeholder":"",
			"prepend":"",
			"append":"",
			"formatting":"html",
			"maxlength":""
		},
		{
			"key":"field_56616158d10ce",
			"label":"Line 5",
			"name":"line_5_2",
			"type":"text",
			"default_value":"",
			"placeholder":"",
			"prepend":"",
			"append":"",
			"formatting":"html",
			"maxlength":""
		}
	],
	"location":[
		[
			{
				"param":"options_page",
				"operator":"==",
				"value":"acf-options",
				"order_no":0,
				"group_no":0
			}
		]
	],
	"options":{
		"position":"normal",
		"layout":"no_box",
		"hide_on_screen":[]
	},
	"menu_order":9
}




